3 数据操作 | R语言编程
…
第1 个参数是数据框，方便管道操作

根据列名访问数据框的列，且列名不用加引号

返回结果是一个新数据框，不改变原数据框

3.2.1 选择列（select）

数据

df = readxl::read_xlsx("datas/ExamDatas_NAs.xlsx")
df

## # A tibble: 50 x 8
##    class name   sex   chinese  math english moral science
##    <chr> <chr>  <chr>   <dbl> <dbl>   <dbl> <dbl>   <dbl>
##  1 六1班 何娜   女         87    92      79     9      10
##  2 六1班 黄才菊 女         95    77      75    NA       9
##  3 六1班 陈芳妹 女         79    87      66     9      10
##  4 六1班 陈学勤 男         NA    79      66     9      10
##  5 六1班 陈祝贞 女         76    79      67     8      10
##  6 六1班 何小薇 女         83    73      65     8       9
##  7 六1班 雷旺   男         NA    80      68     8       9
##  8 六1班 陈欣越 男         57    80      60     9       9
##  9 六1班 黄亦婷 女         77    NA      54     8      10
## 10 六1班 陈媚   女         68    55      66     8       9
## # ... with 40 more rows

3.2.2 选择列语法

（1）用列名或索引选择列

df %>%
  select(name,sex,math) # 或者select(2, 3, 5)

## # A tibble: 50 x 3
##    name   sex    math
##    <chr>  <chr> <dbl>
##  1 何娜   女       92
##  2 黄才菊 女       77
##  3 陈芳妹 女       87
##  4 陈学勤 男       79
##  5 陈祝贞 女       79
##  6 何小薇 女       73
##  7 雷旺   男       80
##  8 陈欣越 男       80
##  9 黄亦婷 女       NA
## 10 陈媚   女       55
## # ... with 40 more rows
…
matches(): 匹配正则表达式的列名

num_range(): 匹配数值范围的列名，如num_range(“x”, 1:3) 匹配x1, x2, x3

结合函数选择列：

where(): 应用一个函数到所有列，选择返回结果为TRUE 的列，比如与is.numeric 等函数连用。

3.2.3 选择列的例子

df %>% 
  select(starts_with("m"))

## # A tibble: 50 x 2
##     math moral
##    <dbl> <dbl>
##  1    92     9
##  2    77    NA
##  3    87     9
##  4    79     9
##  5    79     8
##  6    73     8
##  7    80     8
##  8    80     9
##  9    NA     8
## 10    55     8
## # ... with 40 more rows

df %>%
  select(ends_with("e"))

## # A tibble: 50 x 3
##    name   chinese science
##    <chr>    <dbl>   <dbl>
##  1 何娜        87      10
##  2 黄才菊      95       9
##  3 陈芳妹      79      10
##  4 陈学勤      NA      10
##  5 陈祝贞      76      10
##  6 何小薇      83       9
##  7 雷旺        NA       9
##  8 陈欣越      57       9
##  9 黄亦婷      77      10
## 10 陈媚        68       9
## # ... with 40 more rows

df %>% 
  select(contains("a"))

## # A tibble: 50 x 4
##    class name    math moral
##    <chr> <chr>  <dbl> <dbl>
##  1 六1班 何娜      92     9
##  2 六1班 黄才菊    77    NA
##  3 六1班 陈芳妹    87     9
##  4 六1班 陈学勤    79     9
##  5 六1班 陈祝贞    79     8
##  6 六1班 何小薇    73     8
##  7 六1班 雷旺      80     8
##  8 六1班 陈欣越    80     9
##  9 六1班 黄亦婷    NA     8
## 10 六1班 陈媚      55     8
## # ... with 40 more rows

根据条件（逻辑判断）选择列，例如选择所有数值型的列：

library(tidyselect)
df %>%
  select(where(is.numeric))

## # A tibble: 50 x 5
##    chinese  math english moral science
##      <dbl> <dbl>   <dbl> <dbl>   <dbl>
##  1      87    92      79     9      10
##  2      95    77      75    NA       9
##  3      79    87      66     9      10
##  4      NA    79      66     9      10
##  5      76    79      67     8      10
##  6      83    73      65     8       9
##  7      NA    80      68     8       9
##  8      57    80      60     9       9
##  9      77    NA      54     8      10
## 10      68    55      66     8       9
## # ... with 40 more rows

也可以自定义返回TRUE 或FALSE 的判断函数，支持purrr 风格公式写法。例如，选择列和>3000 的列：

df[,4:8]%>%
  select(where(~sum(.x,na.rm = TRUE)>3000))

## # A tibble: 50 x 2
##    chinese  math
##      <dbl> <dbl>
##  1      87    92
##  2      95    77
##  3      79    87
##  4      NA    79
##  5      76    79
##  6      83    73
##  7      NA    80
##  8      57    80
##  9      77    NA
## 10      68    55
## # ... with 40 more rows

结合n_distinct() 选择唯一值数目< 10 的列：

df %>%
  select(where(~n_distinct(.x)<10))

## # A tibble: 50 x 4
##    class sex   moral science
##    <chr> <chr> <dbl>   <dbl>
##  1 六1班 女        9      10
##  2 六1班 女       NA       9
##  3 六1班 女        9      10
##  4 六1班 男        9      10
##  5 六1班 女        8      10
##  6 六1班 女        8       9
##  7 六1班 男        8       9
##  8 六1班 男        9       9
##  9 六1班 女        8      10
## 10 六1班 女        8       9
## # ... with 40 more rows

3.2.4 用“-” 删除列

df %>% 
  select(-c(name,chinese,science)) #select(-ends_with("e"))

## # A tibble: 50 x 5
##    class sex    math english moral
##    <chr> <chr> <dbl>   <dbl> <dbl>
##  1 六1班 女       92      79     9
##  2 六1班 女       77      75    NA
##  3 六1班 女       87      66     9
##  4 六1班 男       79      66     9
##  5 六1班 女       79      67     8
##  6 六1班 女       73      65     8
##  7 六1班 男       80      68     8
##  8 六1班 男       80      60     9
##  9 六1班 女       NA      54     8
## 10 六1班 女       55      66     8
## # ... with 40 more rows

选择math和除了“e”结尾的其他列

df %>% 
  select(math,everything(),-ends_with("e"))

## # A tibble: 50 x 5
##     math class sex   english moral
##    <dbl> <chr> <chr>   <dbl> <dbl>
##  1    92 六1班 女         79     9
##  2    77 六1班 女         75    NA
##  3    87 六1班 女         66     9
##  4    79 六1班 男         66     9
##  5    79 六1班 女         67     8
##  6    73 六1班 女         65     8
##  7    80 六1班 男         68     8
##  8    80 六1班 男         60     9
##  9    NA 六1班 女         54     8
## 10    55 六1班 女         66     8
## # ... with 40 more rows

注意： -ends_with() 要放在everything() 后面，否则删除的列就全回来了。

3.2.5 调整列的顺序

（1）列是根据被选择的顺序排列：

df %>%
select(ends_with("e"), math, name, class, sex)

## # A tibble: 50 x 6
##    name   chinese science  math class sex  
##    <chr>    <dbl>   <dbl> <dbl> <chr> <chr>
##  1 何娜        87      10    92 六1班 女   
##  2 黄才菊      95       9    77 六1班 女   
##  3 陈芳妹      79      10    87 六1班 女   
##  4 陈学勤      NA      10    79 六1班 男   
##  5 陈祝贞      76      10    79 六1班 女   
##  6 何小薇      83       9    73 六1班 女   
##  7 雷旺        NA       9    80 六1班 男   
##  8 陈欣越      57       9    80 六1班 男   
##  9 黄亦婷      77      10    NA 六1班 女   
## 10 陈媚        68       9    55 六1班 女   
## # ... with 40 more rows

（2）将数值列移到name 列的后面：

df %>% 
  select(math,everything())

## # A tibble: 50 x 8
##     math class name   sex   chinese english moral science
##    <dbl> <chr> <chr>  <chr>   <dbl>   <dbl> <dbl>   <dbl>
##  1    92 六1班 何娜   女         87      79     9      10
##  2    77 六1班 黄才菊 女         95      75    NA       9
##  3    87 六1班 陈芳妹 女         79      66     9      10
##  4    79 六1班 陈学勤 男         NA      66     9      10
##  5    79 六1班 陈祝贞 女         76      67     8      10
##  6    73 六1班 何小薇 女         83      65     8       9
##  7    80 六1班 雷旺   男         NA      68     8       9
##  8    80 六1班 陈欣越 男         57      60     9       9
##  9    NA 六1班 黄亦婷 女         77      54     8      10
## 10    55 六1班 陈媚   女         68      66     8       9
## # ... with 40 more rows

everything() 返回未被选择的所有列，将某一列移到第一列时很方便：

（3）将选择的列移到某列之前或之后

df %>% 
  relocate(where(is.numeric),.after = name)

## # A tibble: 50 x 8
##    class name   chinese  math english moral science sex  
##    <chr> <chr>    <dbl> <dbl>   <dbl> <dbl>   <dbl> <chr>
##  1 六1班 何娜        87    92      79     9      10 女   
##  2 六1班 黄才菊      95    77      75    NA       9 女   
##  3 六1班 陈芳妹      79    87      66     9      10 女   
##  4 六1班 陈学勤      NA    79      66     9      10 男   
##  5 六1班 陈祝贞      76    79      67     8      10 女   
##  6 六1班 何小薇      83    73      65     8       9 女   
##  7 六1班 雷旺        NA    80      68     8       9 男   
##  8 六1班 陈欣越      57    80      60     9       9 男   
##  9 六1班 黄亦婷      77    NA      54     8      10 女   
## 10 六1班 陈媚        68    55      66     8       9 女   
## # ... with 40 more rows

3.2.6 重命名列

（1）为所有列设置新列名set_names()

 df %>%
   set_names(" 班级", " 姓名", " 性别", " 语文",
             " 数学", " 英语", " 品德", " 科学")

## # A tibble: 50 x 8
##    ` 班级` ` 姓名` ` 性别` ` 语文` ` 数学` ` 英语` ` 品德` ` 科学`
##    <chr>   <chr>   <chr>     <dbl>   <dbl>   <dbl>   <dbl>   <dbl>
##  1 六1班   何娜    女           87      92      79       9      10
##  2 六1班   黄才菊  女           95      77      75      NA       9
##  3 六1班   陈芳妹  女           79      87      66       9      10
##  4 六1班   陈学勤  男           NA      79      66       9      10
##  5 六1班   陈祝贞  女           76      79      67       8      10
##  6 六1班   何小薇  女           83      73      65       8       9
##  7 六1班   雷旺    男           NA      80      68       8       9
##  8 六1班   陈欣越  男           57      80      60       9       9
##  9 六1班   黄亦婷  女           77      NA      54       8      10
## 10 六1班   陈媚    女           68      55      66       8       9
## # ... with 40 more rows

（2）只修改部分列名rename()，格式为：新名= 旧名

df %>% 
  rename(数学=math,科学=science)

## # A tibble: 50 x 8
##    class name   sex   chinese  数学 english moral  科学
##    <chr> <chr>  <chr>   <dbl> <dbl>   <dbl> <dbl> <dbl>
##  1 六1班 何娜   女         87    92      79     9    10
##  2 六1班 黄才菊 女         95    77      75    NA     9
##  3 六1班 陈芳妹 女         79    87      66     9    10
##  4 六1班 陈学勤 男         NA    79      66     9    10
##  5 六1班 陈祝贞 女         76    79      67     8    10
##  6 六1班 何小薇 女         83    73      65     8     9
##  7 六1班 雷旺   男         NA    80      68     8     9
##  8 六1班 陈欣越 男         57    80      60     9     9
##  9 六1班 黄亦婷 女         77    NA      54     8    10
## 10 六1班 陈媚   女         68    55      66     8     9
## # ... with 40 more rows
…
注：count() 和tally() 都有参数wt 设置加权计数。

用add_count() 和add_tally() 可为数据集增加一列按分组变量分组的计数：

df %>% 
  add_count(class,sex)

## # A tibble: 50 x 9
##    class name   sex   chinese  math english moral science     n
##    <chr> <chr>  <chr>   <dbl> <dbl>   <dbl> <dbl>   <dbl> <int>
##  1 六1班 何娜   女         87    92      79     9      10     7
##  2 六1班 黄才菊 女         95    77      75    NA       9     7
##  3 六1班 陈芳妹 女         79    87      66     9      10     7
##  4 六1班 陈学勤 男         NA    79      66     9      10     3
##  5 六1班 陈祝贞 女         76    79      67     8      10     7
##  6 六1班 何小薇 女         83    73      65     8       9     7
##  7 六1班 雷旺   男         NA    80      68     8       9     3
##  8 六1班 陈欣越 男         57    80      60     9       9     3
##  9 六1班 黄亦婷 女         77    NA      54     8      10     7
## 10 六1班 陈媚   女         68    55      66     8       9     7
## # ... with 40 more rows
…
通常的数据操作逻辑都是按列方式(colwise)，这使得按行汇总很困难。

dplyr 包提供了rowwise() 函数为数据框创建按行方式(rowwise)，使用rowwise() 后并不是真的
改变数据框，只是创建了按行元信息，改变了数据框的操作逻辑：

按行汇总语数外的总分

df = readxl::read_xlsx("datas/ExamDatas_NAs.xlsx")

rf = df %>%
  rowwise()
rf %>%
  mutate(total=sum(c(chinese,math,english)))

## # A tibble: 50 x 9
## # Rowwise: 
##    class name   sex   chinese  math english moral science total
##    <chr> <chr>  <chr>   <dbl> <dbl>   <dbl> <dbl>   <dbl> <dbl>
##  1 六1班 何娜   女         87    92      79     9      10   258
##  2 六1班 黄才菊 女         95    77      75    NA       9   247
##  3 六1班 陈芳妹 女         79    87      66     9      10   232
##  4 六1班 陈学勤 男         NA    79      66     9      10    NA
##  5 六1班 陈祝贞 女         76    79      67     8      10   222
##  6 六1班 何小薇 女         83    73      65     8       9   221
##  7 六1班 雷旺   男         NA    80      68     8       9    NA
##  8 六1班 陈欣越 男         57    80      60     9       9   197
##  9 六1班 黄亦婷 女         77    NA      54     8      10    NA
## 10 六1班 陈媚   女         68    55      66     8       9   189
## # ... with 40 more rows

函数c_across() 是为按行方式(rowwise) 在选定的列范围汇总数据而设计的，它没有提供.fns
参数，只能选择列

rf %>% 
  mutate(total = sum(c_across(where(is.numeric))))

## # A tibble: 50 x 9
## # Rowwise: 
##    class name   sex   chinese  math english moral science total
##    <chr> <chr>  <chr>   <dbl> <dbl>   <dbl> <dbl>   <dbl> <dbl>
##  1 六1班 何娜   女         87    92      79     9      10   277
##  2 六1班 黄才菊 女         95    77      75    NA       9    NA
##  3 六1班 陈芳妹 女         79    87      66     9      10   251
##  4 六1班 陈学勤 男         NA    79      66     9      10    NA
##  5 六1班 陈祝贞 女         76    79      67     8      10   240
##  6 六1班 何小薇 女         83    73      65     8       9   238
##  7 六1班 雷旺   男         NA    80      68     8       9    NA
##  8 六1班 陈欣越 男         57    80      60     9       9   215
##  9 六1班 黄亦婷 女         77    NA      54     8      10    NA
## 10 六1班 陈媚   女         68    55      66     8       9   206
## # ... with 40 more rows

若只是做按行求和或均值，直接用rowSums() / rowMeans() 速度更快（不需要分割-汇总-合并），
这里的rowwise 行化后提供可以做更多的按行汇总的可能。

df %>%
mutate(total = rowSums(across(where(is.numeric))))

## # A tibble: 50 x 9
##    class name   sex   chinese  math english moral science total
##    <chr> <chr>  <chr>   <dbl> <dbl>   <dbl> <dbl>   <dbl> <dbl>
##  1 六1班 何娜   女         87    92      79     9      10   277
##  2 六1班 黄才菊 女         95    77      75    NA       9    NA
##  3 六1班 陈芳妹 女         79    87      66     9      10   251
##  4 六1班 陈学勤 男         NA    79      66     9      10    NA
##  5 六1班 陈祝贞 女         76    79      67     8      10   240
##  6 六1班 何小薇 女         83    73      65     8       9   238
##  7 六1班 雷旺   男         NA    80      68     8       9    NA
##  8 六1班 陈欣越 男         57    80      60     9       9   215
##  9 六1班 黄亦婷 女         77    NA      54     8      10    NA
## 10 六1班 陈媚   女         68    55      66     8       9   206
## # ... with 40 more rows

按行方式(rowwise) 可以理解为一种特殊的分组：每一行作为一组。为rowwise() 提供行ID，用
summarise() 做汇总更能体会这一点。要解除行化模式，用ungroup().

df %>% 
  rowwise(name) %>% 
  summarise(total=c_across(where(is.numeric)))

## `summarise()` has grouped output by 'name'. You can override using the `.groups` argument.

## # A tibble: 250 x 2
## # Groups:   name [50]
##    name   total
##    <chr>  <dbl>
##  1 何娜      87
##  2 何娜      92
##  3 何娜      79
##  4 何娜       9
##  5 何娜      10
##  6 黄才菊    95
##  7 黄才菊    77
##  8 黄才菊    75
##  9 黄才菊    NA
## 10 黄才菊     9
## # ... with 240 more rows
…
例如，cumsum()、cummean()、rank()、lead()、lag() 等。

（1）排名和排序函数

从小到大排名（ties.method=“min”)，若要从大到小排名需要套一个desc()

安装数学成绩给每个学生生存排名

df %>%
  mutate(ranks = min_rank(desc(math))) %>%
  arrange(ranks)

## # A tibble: 50 x 9
##    class name   sex   chinese  math english moral science ranks
##    <chr> <chr>  <chr>   <dbl> <dbl>   <dbl> <dbl>   <dbl> <int>
##  1 六4班 周婵   女         92    94      77    10       9     1
##  2 六4班 陈丽丽 女         87    93      NA     8       6     2
##  3 六1班 何娜   女         87    92      79     9      10     3
##  4 六5班 符苡榕 女         85    89      76     9      NA     4
##  5 六2班 黄祖娜 女         94    88      75    10      10     5
##  6 六1班 陈芳妹 女         79    87      66     9      10     6
##  7 六4班 李小龄 男         90    87      69    10      10     6
##  8 六2班 徐雅琦 女         92    86      72    NA       9     8
##  9 <NA>  徐达政 男         90    86      72     9      10     8
## 10 六4班 杨昌晟 男         84    85      64     8      10    10
## # ... with 40 more rows
…
